<?xml version="1.0" encoding="UTF-8"?>
<svg width="24" height="24" version="1.1" viewBox="0 0 24 24" xmlns="http://www.w3.org/2000/svg">
 <path d="M0 0h24v24H0z" fill="none"/>
 <path d="M21 3v11.74l-4.696 4.695h-3.913l-2.437 2.348H6.913v-2.348H3V6.13L4.227 3H21zm-1.565 1.565H6.13v11.74h3.13v2.347l2.349-2.348h4.695l3.13-3.13V4.565zm-3.13 3.13v4.696h-1.566V7.696h1.565zm-3.914 0v4.696h-1.565V7.696h1.565z"/>
</svg>
